{
  "status": true,
  "detail": "Success",
  "data": {
    "id": 2,
    "amount": "4000.00",
    "amount_currency": "NGN",
    "checkout_link": "http://checkout.mirapayments.com/pay/z6ffxoqdvdws",
    "customer": {
      "id": 8,
      "account": "2590765673",
      "phone": "",
      "full_name": "",
      "email": "CI/CDtest@gmail.com",
      "blocked": false,
      "created_at": "2022-08-31T09:38:13.260521+01:00",
      "updated_at": "2022-08-31T09:38:13.260550+01:00"
    },
    "code": "z6ffxoqdvdws",
    "meta": { "device_id": "22" },
    "trans_reference": "",
    "redirect_url": "http://google.com"
  }
}
